{
    "roles": [
        {
            "Id": 1,
            "Name": "System Administrator",
            "Parent": 0
        },
        {
            "Id": 2,
            "Name": "Location Manager",
            "Parent": 1
        },
        {
            "Id": 3,
            "Name": "Supervisor",
            "Parent": 2
        },
        {
            "Id": 4,
            "Name": "Employee",
            "Parent": 5
        },
        {
            "Id": 5,
            "Name": "Trainer",
            "Parent": 3
        }
    ],
    "users": [
    ]
}

